Annotate metabolites according to MS2 database using metID • metID
…
Extracxt the identification table

You can also get the identification table from it.

identification.table1 <- getIdentificationTable(object = result, 
                                                candidate.num = 3, 
                                                type = "old")
identification.table1 %>% 
  filter(!is.na(Identification))
#> # A tibble: 56 x 6
#>    name      mz    rt MS2.spectrum.name  Candidate.number Identification        
#>    <chr>  <dbl> <dbl> <chr>                         <dbl> <chr>                 
#>  1 pRPLC~  190. 336.  mz190.08644104003~                1 Compound.name:Indole-~
#>  2 pRPLC~  526. 649.  mz526.29294342759~                1 Compound.name:LysoPE(~
#>  3 pRPLC~  321. 652.  mz321.24005126953~                1 Compound.name:C20:4,O~
#>  4 pRPLC~  548. 692.  mz548.37107890314~                1 Compound.name:1,2-DID~
#>  5 pRPLC~  502. 648.  mz502.29299926757~                1 Compound.name:LysoPE(~
#>  6 pRPLC~  167. 510.  mz167.07038879394~                1 Compound.name:3-(2-HY~
#>  7 pRPLC~  363. 446.  mz363.21661938489~                1 Compound.name:Cortiso~
#>  8 pRPLC~  162.  33.7 mz162.11244215767~                1 Compound.name:L-Carni~
#>  9 pRPLC~  162.  47.9 mz162.05841580753~                1 Compound.name:S-Allyl~
#> 10 pRPLC~  100. 108.  mz100.07563781738~                2 Compound.name:2-Piper~
#> # ... with 46 more rows

You can also set the type as “new” to get the different type of identification table.

identification.table1 <- getIdentificationTable(object = result, 
                                                candidate.num = 3, 
                                                type = "new")
identification.table1 %>% 
  filter(!is.na(Compound.name))
#> # A tibble: 96 x 17
#>    name  mz    rt    Compound.name CAS.ID HMDB.ID KEGG.ID Lab.ID Adduct mz.error
#>    <chr> <chr> <chr> <chr>         <chr>  <chr>   <chr>   <chr>  <chr>  <chr>   
#>  1 pRPL~ 190.~ " 33~ Indole-3-pro~ <NA>   <NA>    <NA>    RPLC_~ (M+H)+ 0.35260~
#>  2 pRPL~ 526.~ " 64~ LysoPE(22:6)  <NA>   HMDB11~ <NA>    RPLC_~ (M+H)+ 2.03010~
#>  3 pRPL~ 321.~ " 65~ C20:4,OH FA(~ <NA>   <NA>    <NA>    RPLC_~ (M+H)+ 7.18432~
#>  4 pRPL~ 548.~ " 69~ 1,2-DIDECANO~ <NA>   <NA>    <NA>    RPLC_~ (M+H-~ 0.03447~
#>  5 pRPL~ 502.~ " 64~ LysoPE(20:4)  <NA>   HMDB11~ <NA>    RPLC_~ (M+H)+ 1.64100~
#>  6 pRPL~ 167.~ " 50~ 3-(2-HYDROXY~ <NA>   <NA>    <NA>    RPLC_~ (M+H)+ 0.22198~
#>  7 pRPL~ 363.~ " 44~ Cortisol      50-23~ HMDB00~ C00735  RPLC_~ (M+H)+ 4.11096~
#>  8 pRPL~ 162.~ "  3~ L-Carnitine   541-1~ HMDB00~ C00318  RPLC_~ (M+H)+ 1.66789~
#>  9 pRPL~ 162.~ "  4~ S-Allylcyste~ 21593~ HMDB34~ C16759  RPLC_~ (M+H)+ 1.85201~
#> 10 pRPL~ 100.~ " 10~ 2-Piperidino~ <NA>   HMDB11~ <NA>    RPLC_~ (M+H)+ 1.40704~
#> # ... with 86 more rows, and 7 more variables: mz.match.score <chr>,
#> #   RT.error <chr>, RT.match.score <chr>, CE <chr>, SS <chr>,
#> #   Total.score <chr>, Database <chr>
…
