Annotate metabolites according to MS1 database using metID package • metID
…
Because there are no ms2 data, so the peaks have no MS2 spectra.

Get the identification table

We can use get_identification_table() to get the identification table.

table1 <- 
  get_identification_table(annotate_result1, candidate.num = 3,
                           type = "old")
#> The object is identified without MS2 spectra.
table1
#> # A tibble: 100 x 5
#>    name        mz    rt Candidate.number Identification                         
#>    <chr>    <dbl> <dbl>            <dbl> <chr>                                  
#>  1 pRPLC_3…  472. 773.                 3 Compound.name:Chenodeoxycholic acid gl…
#>  2 pRPLC_3…  466. 747.                 1 Compound.name:C18:0 AC (Stearoylcarnit…
#>  3 pRPLC_6…  162.  33.7                2 Compound.name:L(-)-Carnitine;CAS.ID:NA…
#>  4 pRPLC_6…  181.  36.4                3 Compound.name:THEOBROMINE;CAS.ID:NA;HM…
#>  5 pRPLC_6…  230. 158.                 3 Compound.name:Pyridoxic acid;CAS.ID:82…
#>  6 pRPLC_7…  181. 228.                 3 Compound.name:THEOBROMINE;CAS.ID:NA;HM…
#>  7 pRPLC_7…  289. 286.                 0 <NA>                                   
#>  8 pRPLC_1…  181. 201.                 3 Compound.name:THEOBROMINE;CAS.ID:NA;HM…
#>  9 pRPLC_1…  209.  57.4                3 Compound.name:5-HYDROXYINDOLEACETATE;C…
#> 10 pRPLC_1…  283.  40.9                0 <NA>                                   
#> # … with 90 more rows

The type is set as old. It means the identifications for each peak is shown as one character and seperated by {}. And the order is sorted by Total score.

You can also set type as new to get another style.

table2 <- 
  get_identification_table(annotate_result1, candidate.num = 3,
                           type = "new")
#> The object is identified without MS2 spectra.
table2
#> # A tibble: 169 x 17
#>    name  mz    rt    Compound.name CAS.ID HMDB.ID KEGG.ID Lab.ID Adduct mz.error
#>    <chr> <chr> <chr> <chr>         <chr>  <chr>   <chr>   <chr>  <chr>  <chr>   
#>  1 pRPL… "472… "772… Chenodeoxych… 640-7… HMDB00… C05466  RPLC_… (M+Na… 0.23988…
#>  2 pRPL… ""    ""    CHOLATE       <NA>   <NA>    <NA>    RPLC_… (M+CH… 0.30001…
#>  3 pRPL… ""    ""    Cholic Acid   <NA>   HMDB00… <NA>    RPLC_… (M+CH… 0.45161…
#>  4 pRPL… "466… "746… C18:0 AC (St… 1976-… HMDB00… 0       RPLC_… (M+K)+ 3.83098…
#>  5 pRPL… "162… " 33… L(-)-Carniti… <NA>   <NA>    <NA>    RPLC_… (M+H)+ 0.05375…
#>  6 pRPL… ""    ""    L-Carnitine   541-1… HMDB00… C00318  RPLC_… (M+H)+ 1.86625…
#>  7 pRPL… "181… " 36… THEOBROMINE   <NA>   <NA>    <NA>    RPLC_… (M+H)+ 0.02649…
#>  8 pRPL… ""    ""    5-Acetylamin… <NA>   <NA>    <NA>    RPLC_… (M+H-… 0.04849…
#>  9 pRPL… ""    ""    Theophylline  <NA>   HMDB00… <NA>    RPLC_… (M+H)+ 1.61099…
#> 10 pRPL… "230… "158… Pyridoxic ac… 82-82… HMDB00… C00847  RPLC_… (M+HC… 9.11449…
#> # … with 159 more rows, and 7 more variables: RT.error <chr>,
#> #   mz.match.score <chr>, RT.match.score <chr>, Total.score <chr>, CE <chr>,
#> #   SS <chr>, Database <chr>

If you only want to keep one cancidate for each peak. Please set candiate.num as 1.

table2 <- 
  get_identification_table(annotate_result1, candidate.num = 1,
                           type = "new")
#> The object is identified without MS2 spectra.
table2
#> # A tibble: 100 x 17
#>    name  mz    rt    Compound.name CAS.ID HMDB.ID KEGG.ID Lab.ID Adduct mz.error
#>    <chr> <chr> <chr> <chr>         <chr>  <chr>   <chr>   <chr>  <chr>  <chr>   
#>  1 pRPL… 472.… "772… Chenodeoxych… 640-7… HMDB00… C05466  RPLC_… (M+Na… 0.23988…
#>  2 pRPL… 466.… "746… C18:0 AC (St… 1976-… HMDB00… 0       RPLC_… (M+K)+ 3.83098…
#>  3 pRPL… 162.… " 33… L(-)-Carniti… <NA>   <NA>    <NA>    RPLC_… (M+H)+ 0.05375…
#>  4 pRPL… 181.… " 36… THEOBROMINE   <NA>   <NA>    <NA>    RPLC_… (M+H)+ 0.02649…
#>  5 pRPL… 230.… "158… Pyridoxic ac… 82-82… HMDB00… C00847  RPLC_… (M+HC… 9.11449…
#>  6 pRPL… 181.… "228… THEOBROMINE   <NA>   <NA>    <NA>    RPLC_… (M+H)+ 0.06125…
#>  7 pRPL… 289.… "286… <NA>          <NA>   <NA>    <NA>    <NA>   <NA>   <NA>    
#>  8 pRPL… 181.… "201… THEOBROMINE   <NA>   <NA>    <NA>    RPLC_… (M+H)+ 0.04975…
#>  9 pRPL… 209.… " 57… 5-HYDROXYIND… <NA>   <NA>    <NA>    RPLC_… (M+NH… 0.08100…
#> 10 pRPL… 282.… " 40… <NA>          <NA>   <NA>    <NA>    <NA>   <NA>   <NA>    
#> # … with 90 more rows, and 7 more variables: RT.error <chr>,
#> #   mz.match.score <chr>, RT.match.score <chr>, Total.score <chr>, CE <chr>,
#> #   SS <chr>, Database <chr>
…
